pipeline_top.vcd
$date
	Mon Jan 06 23:44:27 2025
$end
$version
	Icarus Verilog
$end
$timescale
	1s
$end
$scope module tb $end
$var reg 1 ! clk $end
$var reg 1 " rst $end
$scope module dut $end
$var wire 5 # Load [4:0] $end
$var wire 1 ! clk $end
$var wire 1 " rst $end
$var wire 1 $ ZeroE $end
$var wire 32 % WriteDataM [31:0] $end
$var wire 1 & StallF $end
$var wire 1 ' StallD $end
$var wire 32 ( ResultW [31:0] $end
$var wire 2 ) ResultSrcW [1:0] $end
$var wire 2 * ResultSrcM [1:0] $end
$var wire 2 + ResultSrcE [1:0] $end
$var wire 1 , RegWriteW $end
$var wire 1 - RegWriteM $end
$var wire 1 . RegWriteE $end
$var wire 32 / ReadDataW [31:0] $end
$var wire 5 0 RS2_E [4:0] $end
$var wire 5 1 RS2_D [4:0] $end
$var wire 5 2 RS1_E [4:0] $end
$var wire 5 3 RS1_D [4:0] $end
$var wire 5 4 RD_W [4:0] $end
$var wire 5 5 RD_M [4:0] $end
$var wire 5 6 RD_E [4:0] $end
$var wire 32 7 RD2_E [31:0] $end
$var wire 32 8 RD1_E [31:0] $end
$var wire 32 9 PCTargetE [31:0] $end
$var wire 1 : PCSrcE $end
$var wire 32 ; PCPlus4W [31:0] $end
$var wire 32 < PCPlus4M [31:0] $end
$var wire 32 = PCPlus4E [31:0] $end
$var wire 32 > PCPlus4D [31:0] $end
$var wire 32 ? PCE [31:0] $end
$var wire 32 @ PCD [31:0] $end
$var wire 1 A MemWriteM $end
$var wire 1 B MemWriteE $end
$var wire 1 C JumpE $end
$var wire 32 D InstrD [31:0] $end
$var wire 32 E Imm_Ext_E [31:0] $end
$var wire 2 F ForwardBE [1:0] $end
$var wire 2 G ForwardAE [1:0] $end
$var wire 1 H FlushE $end
$var wire 1 I FlushD $end
$var wire 6 J Branch [5:0] $end
$var wire 32 K ALU_ResultW [31:0] $end
$var wire 32 L ALU_ResultM [31:0] $end
$var wire 1 M ALUSrcE $end
$var wire 4 N ALUControlE [3:0] $end
$scope module Forwarding_block $end
$var wire 1 " rst $end
$var wire 1 , RegWriteW $end
$var wire 1 - RegWriteM $end
$var wire 5 O RS2_E [4:0] $end
$var wire 5 P RS1_E [4:0] $end
$var wire 5 Q RD_W [4:0] $end
$var wire 5 R RD_M [4:0] $end
$var wire 2 S ForwardBE [1:0] $end
$var wire 2 T ForwardAE [1:0] $end
$upscope $end
$scope module branch $end
$var wire 1 I FlushD $end
$var wire 1 H FlushE $end
$var wire 5 U RS1_D [4:0] $end
$var wire 5 V RS2_D [4:0] $end
$var wire 1 W lwStall $end
$var wire 2 X ResultSrcE [1:0] $end
$var wire 5 Y RD_E [4:0] $end
$var wire 1 : PCSrcE $end
$upscope $end
$scope module decode $end
$var wire 4 Z ALUControlE [3:0] $end
$var wire 1 M ALUSrcE $end
$var wire 6 [ Branch [5:0] $end
$var wire 1 H FlushE $end
$var wire 32 \ Imm_Ext_E [31:0] $end
$var wire 1 C JumpE $end
$var wire 5 ] Load [4:0] $end
$var wire 5 ^ LoadD [4:0] $end
$var wire 1 B MemWriteE $end
$var wire 32 _ PCE [31:0] $end
$var wire 32 ` PCPlus4E [31:0] $end
$var wire 1 a PCSrc $end
$var wire 32 b RD1_E [31:0] $end
$var wire 32 c RD2_E [31:0] $end
$var wire 5 d RS1_D [4:0] $end
$var wire 5 e RS1_E [4:0] $end
$var wire 5 f RS2_D [4:0] $end
$var wire 5 g RS2_E [4:0] $end
$var wire 1 . RegWriteE $end
$var wire 2 h ResultSrcE [1:0] $end
$var wire 3 i Store [2:0] $end
$var wire 3 j StoreD [2:0] $end
$var wire 1 ! clk $end
$var wire 1 " rst $end
$var wire 1 $ ZeroE $end
$var wire 32 k ResultW [31:0] $end
$var wire 2 l ResultSrcD [1:0] $end
$var wire 1 , RegWriteW $end
$var wire 1 m RegWriteD $end
$var wire 5 n RD_W [4:0] $end
$var wire 5 o RD_E [4:0] $end
$var wire 32 p RD2_D [31:0] $end
$var wire 32 q RD1_D [31:0] $end
$var wire 32 r PCPlus4D [31:0] $end
$var wire 32 s PCD [31:0] $end
$var wire 1 t MemWriteD $end
$var wire 1 u JumpD $end
$var wire 32 v InstrD [31:0] $end
$var wire 32 w Imm_Ext_D [31:0] $end
$var wire 2 x ImmSrcD [1:0] $end
$var wire 6 y BranchD [5:0] $end
$var wire 1 z ALUSrcD $end
$var wire 4 { ALUControlD [3:0] $end
$var reg 4 | ALUControlD_r [3:0] $end
$var reg 1 M ALUSrcD_r $end
$var reg 6 } BranchD_r [5:0] $end
$var reg 32 ~ Imm_Ext_D_r [31:0] $end
$var reg 1 !" JumpD_r $end
$var reg 5 "" LoadD_r [4:0] $end
$var reg 1 #" MemWriteD_r $end
$var reg 32 $" PCD_r [31:0] $end
$var reg 32 %" PCPlus4D_r [31:0] $end
$var reg 32 &" RD1_D_r [31:0] $end
$var reg 32 '" RD2_D_r [31:0] $end
$var reg 5 (" RD_r [4:0] $end
$var reg 5 )" RS1_D_r [4:0] $end
$var reg 5 *" RS2_D_r [4:0] $end
$var reg 1 +" RegWriteD_r $end
$var reg 2 ," ResultSrcD_r [1:0] $end
$var reg 3 -" StoreD_r [2:0] $end
$scope module control $end
$var wire 5 ." Load [4:0] $end
$var wire 1 a PCSrc $end
$var wire 3 /" Store [2:0] $end
$var wire 3 0" func3 [2:0] $end
$var wire 7 1" func7 [6:0] $end
$var wire 7 2" op [6:0] $end
$var wire 1 $ Zero $end
$var wire 2 3" ResultSrc [1:0] $end
$var wire 1 m RegWrite $end
$var wire 1 t MemWrite $end
$var wire 1 u Jump $end
$var wire 2 4" ImmSrc [1:0] $end
$var wire 6 5" Branch [5:0] $end
$var wire 1 z ALUSrc $end
$var wire 2 6" ALUOp [1:0] $end
$var wire 4 7" ALUControl [3:0] $end
$scope module Alu $end
$var wire 3 8" func3 [2:0] $end
$var wire 7 9" func7 [6:0] $end
$var wire 7 :" op [6:0] $end
$var wire 2 ;" ALUOp [1:0] $end
$var reg 4 <" ALUControl [3:0] $end
$upscope $end
$scope module main $end
$var wire 1 a PCSrc $end
$var wire 3 =" func3 [2:0] $end
$var wire 7 >" op [6:0] $end
$var wire 1 $ Zero $end
$var wire 2 ?" ResultSrc [1:0] $end
$var wire 1 m RegWrite $end
$var wire 1 t MemWrite $end
$var wire 1 u Jump $end
$var wire 2 @" ImmSrc [1:0] $end
$var wire 1 z ALUSrc $end
$var wire 2 A" ALUOp [1:0] $end
$var parameter 3 B" BEQ $end
$var parameter 3 C" BGE $end
$var parameter 3 D" BGEU $end
$var parameter 3 E" BLT $end
$var parameter 3 F" BLTU $end
$var parameter 3 G" BNE $end
$var parameter 3 H" LB $end
$var parameter 3 I" LBU $end
$var parameter 3 J" LH $end
$var parameter 3 K" LHU $end
$var parameter 3 L" LW $end
$var parameter 3 M" SB $end
$var parameter 3 N" SH $end
$var parameter 3 O" SW $end
$var reg 6 P" Branch [5:0] $end
$var reg 5 Q" Load [4:0] $end
$var reg 3 R" Store [2:0] $end
$upscope $end
$upscope $end
$scope module register $end
$var wire 5 S" A1 [4:0] $end
$var wire 5 T" A2 [4:0] $end
$var wire 1 ! clk $end
$var wire 1 " rst $end
$var wire 1 , WE3 $end
$var wire 32 U" WD3 [31:0] $end
$var wire 32 V" RD2 [31:0] $end
$var wire 32 W" RD1 [31:0] $end
$var wire 5 X" A3 [4:0] $end
$var integer 32 Y" i [31:0] $end
$upscope $end
$scope module sign $end
$var wire 2 Z" ImmSrc [1:0] $end
$var wire 32 [" In [31:0] $end
$var reg 32 \" Imm_Ext [31:0] $end
$upscope $end
$upscope $end
$scope module execute $end
$var wire 4 ]" ALUControlE [3:0] $end
$var wire 1 M ALUSrcE $end
$var wire 6 ^" Branch [5:0] $end
$var wire 2 _" ForwardAE [1:0] $end
$var wire 2 `" ForwardBE [1:0] $end
$var wire 32 a" Imm_Ext_E [31:0] $end
$var wire 1 C JumpE $end
$var wire 1 B MemWriteE $end
$var wire 1 A MemWriteM $end
$var wire 32 b" PCE [31:0] $end
$var wire 32 c" PCPlus4E [31:0] $end
$var wire 32 d" PCPlus4M [31:0] $end
$var wire 32 e" RD1_E [31:0] $end
$var wire 32 f" RD2_E [31:0] $end
$var wire 5 g" RD_E [4:0] $end
$var wire 5 h" RD_M [4:0] $end
$var wire 1 . RegWriteE $end
$var wire 1 - RegWriteM $end
$var wire 2 i" ResultSrcE [1:0] $end
$var wire 2 j" ResultSrcM [1:0] $end
$var wire 32 k" WriteDataM [31:0] $end
$var wire 1 ! clk $end
$var wire 1 " rst $end
$var wire 1 $ ZeroE $end
$var wire 1 l" V $end
$var wire 32 m" Scr_B_interim [31:0] $end
$var wire 32 n" Scr_B [31:0] $end
$var wire 32 o" Scr_A [31:0] $end
$var wire 32 p" Result_E [31:0] $end
$var wire 32 q" ResultW [31:0] $end
$var wire 32 r" PCTargetE [31:0] $end
$var wire 1 s" N $end
$var wire 1 t" C $end
$var wire 32 u" ALU_ResultM [31:0] $end
$var reg 1 A MemWriteE_r $end
$var reg 32 v" PCPlus4E_r [31:0] $end
$var reg 1 : PCSrcE $end
$var reg 32 w" RD2_E_r [31:0] $end
$var reg 5 x" RD_E_r [4:0] $end
$var reg 1 - RegWriteE_r $end
$var reg 2 y" ResultSrcE_r [1:0] $end
$var reg 32 z" Result_E_r [31:0] $end
$scope module alu $end
$var wire 4 {" ALUControl [3:0] $end
$var wire 32 |" A_and_B [31:0] $end
$var wire 32 }" A_or_B [31:0] $end
$var wire 32 ~" A_xor_B [31:0] $end
$var wire 1 t" C $end
$var wire 32 !# Result [31:0] $end
$var wire 1 l" V $end
$var wire 32 "# not_B [31:0] $end
$var wire 32 ## sum [31:0] $end
$var wire 32 $# srl [31:0] $end
$var wire 32 %# sra [31:0] $end
$var wire 32 &# slt [31:0] $end
$var wire 32 '# sll [31:0] $end
$var wire 32 (# mux_2 [31:0] $end
$var wire 32 )# mux_1 [31:0] $end
$var wire 1 *# cout $end
$var wire 1 $ Zero $end
$var wire 1 s" N $end
$var wire 32 +# B [31:0] $end
$var wire 32 ,# A [31:0] $end
$upscope $end
$scope module alu_src_mux $end
$var wire 32 -# b [31:0] $end
$var wire 1 M s $end
$var wire 32 .# c [31:0] $end
$var wire 32 /# a [31:0] $end
$upscope $end
$scope module branch_adder $end
$var wire 32 0# a [31:0] $end
$var wire 32 1# b [31:0] $end
$var wire 32 2# c [31:0] $end
$upscope $end
$scope module srcA $end
$var wire 32 3# a [31:0] $end
$var wire 32 4# c [31:0] $end
$var wire 2 5# s [1:0] $end
$var wire 32 6# d [31:0] $end
$var wire 32 7# b [31:0] $end
$upscope $end
$scope module srcB $end
$var wire 32 8# a [31:0] $end
$var wire 32 9# c [31:0] $end
$var wire 2 :# s [1:0] $end
$var wire 32 ;# d [31:0] $end
$var wire 32 <# b [31:0] $end
$upscope $end
$upscope $end
$scope module fetch $end
$var wire 1 =# EN1 $end
$var wire 1 ># EN2 $end
$var wire 1 I FlushD $end
$var wire 1 : PCSrcE $end
$var wire 32 ?# PCTargetE [31:0] $end
$var wire 1 ! clk $end
$var wire 1 " rst $end
$var wire 32 @# PC_F [31:0] $end
$var wire 32 A# PCPlus4F [31:0] $end
$var wire 32 B# PCPlus4D [31:0] $end
$var wire 32 C# PCF [31:0] $end
$var wire 32 D# PCD [31:0] $end
$var wire 32 E# InstrF [31:0] $end
$var wire 32 F# InstrD [31:0] $end
$var reg 32 G# InstrF_reg [31:0] $end
$var reg 32 H# PCF_reg [31:0] $end
$var reg 32 I# PCPlus4F_reg [31:0] $end
$scope module PC_mux $end
$var wire 32 J# b [31:0] $end
$var wire 1 : s $end
$var wire 32 K# c [31:0] $end
$var wire 32 L# a [31:0] $end
$upscope $end
$scope module instruction $end
$var wire 1 M# clk $end
$var wire 1 " rst $end
$var wire 32 N# RD [31:0] $end
$var wire 32 O# A [31:0] $end
$upscope $end
$scope module pc $end
$var wire 32 P# b [31:0] $end
$var wire 32 Q# c [31:0] $end
$var wire 32 R# a [31:0] $end
$upscope $end
$scope module program $end
$var wire 1 =# EN $end
$var wire 32 S# PC_NEXT [31:0] $end
$var wire 1 ! clk $end
$var wire 1 " rst $end
$var reg 32 T# PC [31:0] $end
$upscope $end
$upscope $end
$scope module memory $end
$var wire 32 U# ALU_ResultM [31:0] $end
$var wire 32 V# ALU_ResultW [31:0] $end
$var wire 1 A MemWriteM $end
$var wire 32 W# PCPlus4M [31:0] $end
$var wire 32 X# PCPlus4W [31:0] $end
$var wire 5 Y# RD_M [4:0] $end
$var wire 5 Z# RD_W [4:0] $end
$var wire 32 [# ReadDataW [31:0] $end
$var wire 1 - RegWriteM $end
$var wire 1 , RegWriteW $end
$var wire 2 \# ResultSrcM [1:0] $end
$var wire 2 ]# ResultSrcW [1:0] $end
$var wire 32 ^# WriteDataM [31:0] $end
$var wire 1 ! clk $end
$var wire 1 " rst $end
$var wire 32 _# ReadDataM [31:0] $end
$var reg 32 `# ALU_ResultM_r [31:0] $end
$var reg 32 a# PCPlus4M_r [31:0] $end
$var reg 5 b# RD_M_r [4:0] $end
$var reg 32 c# ReadDataM_r [31:0] $end
$var reg 1 , RegWriteM_r $end
$var reg 2 d# ResultSrcM_r [1:0] $end
$scope module data $end
$var wire 32 e# A [31:0] $end
$var wire 32 f# WD [31:0] $end
$var wire 1 A WE $end
$var wire 1 ! clk $end
$var wire 1 " rst $end
$var wire 32 g# RD [31:0] $end
$var integer 32 h# i [31:0] $end
$upscope $end
$upscope $end
$scope module stall $end
$var wire 1 i# FlushD $end
$var wire 1 H FlushE $end
$var wire 1 j# PCSrcE $end
$var wire 5 k# RD_E [4:0] $end
$var wire 5 l# RS1_D [4:0] $end
$var wire 5 m# RS2_D [4:0] $end
$var wire 2 n# ResultSrcE [1:0] $end
$var wire 1 ' StallD $end
$var wire 1 & StallF $end
$var wire 1 o# lwStall $end
$upscope $end
$scope module write $end
$var wire 32 p# ALU_ResultW [31:0] $end
$var wire 32 q# PCPlus4W [31:0] $end
$var wire 32 r# ReadDataW [31:0] $end
$var wire 2 s# ResultSrcW [1:0] $end
$var wire 1 ! clk $end
$var wire 1 " rst $end
$var wire 32 t# ResultW [31:0] $end
$scope module mux $end
$var wire 32 u# a [31:0] $end
$var wire 32 v# b [31:0] $end
$var wire 32 w# c [31:0] $end
$var wire 2 x# s [1:0] $end
$var wire 32 y# d [31:0] $end
$upscope $end
$upscope $end
$upscope $end
$upscope $end
$enddefinitions $end
$comment Show the parameter values. $end
$dumpall
b10 O"
b1 N"
b0 M"
b10 L"
b101 K"
b1 J"
b100 I"
b0 H"
b1 G"
b110 F"
b100 E"
b111 D"
b101 C"
b0 B"
$end
#0
$dumpvars
b0 y#
b0 x#
b0 w#
b0 v#
b0 u#
b0 t#
b0 s#
b0 r#
b0 q#
b0 p#
0o#
b0 n#
b0 m#
b0 l#
b0 k#
zj#
zi#
b10000000000 h#
b0 g#
b0 f#
b0 e#
b0 d#
b0 c#
b0 b#
b0 a#
b0 `#
b0 _#
b0 ^#
b0 ]#
b0 \#
b0 [#
b0 Z#
b0 Y#
b0 X#
b0 W#
b0 V#
b0 U#
bx T#
bx S#
bx R#
bx Q#
b100 P#
bx O#
b0 N#
zM#
bx L#
bx K#
b0 J#
b0 I#
b0 H#
b0 G#
b0 F#
b0 E#
b0 D#
bx C#
b0 B#
bx A#
bx @#
b0 ?#
1>#
1=#
b0 <#
b0 ;#
b0 :#
b0 9#
b0 8#
b0 7#
b0 6#
b0 5#
b0 4#
b0 3#
b0 2#
b0 1#
b0 0#
b0 /#
b0 .#
b0 -#
b0 ,#
b0 +#
0*#
b0 )#
b0 (#
b0 '#
b0 &#
b0 %#
b0 $#
b0 ##
b11111111111111111111111111111111 "#
b0 !#
b0 ~"
b0 }"
b0 |"
b0 {"
b0 z"
b0 y"
b0 x"
b0 w"
b0 v"
b0 u"
0t"
0s"
b0 r"
b0 q"
b0 p"
b0 o"
b0 n"
b0 m"
0l"
b0 k"
b0 j"
b0 i"
b0 h"
b0 g"
b0 f"
b0 e"
b0 d"
b0 c"
b0 b"
b0 a"
b0 `"
b0 _"
b0 ^"
b0 ]"
b0 \"
b0 ["
b0 Z"
b11111 Y"
b0 X"
b0 W"
b0 V"
b0 U"
b0 T"
b0 S"
b0 R"
b0 Q"
b0 P"
b0 A"
b0 @"
b0 ?"
b0 >"
b0 ="
b0 <"
b0 ;"
b0 :"
b0 9"
b0 8"
b0 7"
b0 6"
b0 5"
b0 4"
b0 3"
b0 2"
b0 1"
b0 0"
b0 /"
b0 ."
b0 -"
b0 ,"
0+"
b0 *"
b0 )"
b0 ("
b0 '"
b0 &"
b0 %"
b0 $"
0#"
b0 ""
0!"
b0 ~
b0 }
b0 |
b0 {
0z
b0 y
b0 x
b0 w
b0 v
0u
0t
b0 s
b0 r
b0 q
b0 p
b0 o
b0 n
0m
b0 l
b0 k
bz j
b0 i
b0 h
b0 g
b0 f
b0 e
b0 d
b0 c
b0 b
za
b0 `
b0 _
bz ^
b0 ]
b0 \
b0 [
b0 Z
b0 Y
b0 X
0W
b0 V
b0 U
b0 T
b0 S
b0 R
b0 Q
b0 P
b0 O
b0 N
0M
b0 L
b0 K
b0 J
0I
0H
b0 G
b0 F
b0 E
b0 D
0C
0B
0A
b0 @
b0 ?
b0 >
b0 =
b0 <
b0 ;
0:
b0 9
b0 8
b0 7
b0 6
b0 5
b0 4
b0 3
b0 2
b0 1
b0 0
b0 /
0.
0-
0,
b0 +
b0 *
b0 )
b0 (
0'
0&
b0 %
1$
b0 #
0"
1!
$end
#50
0!
#100
b100 @#
b100 K#
b100 S#
b100 A#
b100 L#
b100 Q#
b0 C#
b0 O#
b0 R#
b0 T#
1!
#150
0!
#200
b101000000000000010010011 E#
b101000000000000010010011 N#
1"
1!
#250
0!
#300
1m
1z
b10 6"
b10 ;"
b10 A"
b10100000000000100010011 E#
b10100000000000100010011 N#
b1010 T"
b10011 2"
b10011 :"
b10011 >"
b1010 1
b1010 V
b1010 f
b1010 m#
b1010 w
b1010 \"
b1000 @#
b1000 K#
b1000 S#
b100 >
b100 r
b100 B#
b101000000000000010010011 D
b101000000000000010010011 v
b101000000000000010010011 ["
b101000000000000010010011 F#
b1000 A#
b1000 L#
b1000 Q#
b100 C#
b100 O#
b100 R#
b100 T#
b100 I#
b101000000000000010010011 G#
bz -"
bz ""
1!
#350
0!
#400
0$
b1010 p"
b1010 !#
b1010 (#
b1010 ##
b1010 )#
b1010 ~"
b11111111111111111111111111110101 "#
b1010 }"
b10000000000000000011110010011 E#
b10000000000000000011110010011 N#
b1010 n"
b1010 +#
b1010 .#
b101 T"
b101 1
b101 V
b101 f
b101 m#
b101 w
b101 \"
b1100 @#
b1100 K#
b1100 S#
b1000 >
b1000 r
b1000 B#
b100 @
b100 s
b100 D#
b10100000000000100010011 D
b10100000000000100010011 v
b10100000000000100010011 ["
b10100000000000100010011 F#
b1100 A#
b1100 L#
b1100 Q#
b1000 C#
b1000 O#
b1000 R#
b1000 T#
b1010 0
b1010 O
b1010 g
b1010 *"
b100 =
b100 `
b100 c"
b100 %"
b1 6
b1 Y
b1 o
b1 ("
b1 g"
b1 k#
b1010 9
b1010 r"
b1010 2#
b1010 ?#
b1010 J#
b1010 E
b1010 \
b1010 ~
b1010 a"
b1010 -#
b1010 1#
1M
1.
1+"
b1000 I#
b100 H#
b10100000000000100010011 G#
1!
#450
0!
#500
b101 p"
b101 !#
b101 (#
b101 ##
b1000001000000110110011 E#
b1000001000000110110011 N#
b0 T"
b1000 1"
b1000 9"
b0 1
b0 V
b0 f
b0 m#
b100000000 w
b100000000 \"
b101 )#
b101 ~"
b11111111111111111111111111111010 "#
b101 }"
b10000 @#
b10000 K#
b10000 S#
b1100 >
b1100 r
b1100 B#
b1000 @
b1000 s
b1000 D#
b10000000000000000011110010011 D
b10000000000000000011110010011 v
b10000000000000000011110010011 ["
b10000000000000000011110010011 F#
b101 n"
b101 +#
b101 .#
b10000 A#
b10000 L#
b10000 Q#
b1100 C#
b1100 O#
b1100 R#
b1100 T#
b1100 I#
b1000 H#
b10000000000000000011110010011 G#
b101 0
b101 O
b101 g
b101 *"
b1000 =
b1000 `
b1000 c"
b1000 %"
b100 ?
b100 _
b100 $"
b100 b"
b100 0#
b10 6
b10 Y
b10 o
b10 ("
b10 g"
b10 k#
b1001 9
b1001 r"
b1001 2#
b1001 ?#
b1001 J#
b101 E
b101 \
b101 ~
b101 a"
b101 -#
b101 1#
b1010 L
b1010 u"
b1010 z"
b1010 4#
b1010 9#
b1010 U#
b1010 e#
b100 <
b100 d"
b100 W#
b100 v"
b1 5
b1 R
b1 h"
b1 x"
b1 Y#
1-
1!
#550
0!
#600
b1010 q
b1010 W"
1m
b100000000 p"
b100000000 !#
b100000000 (#
0z
b100000000 ##
b1000000001000001000001000110011 E#
b1000000001000001000001000110011 N#
b100000000 )#
b100000000 ~"
b11111111111111111111111011111111 "#
b100000000 }"
b10 T"
b1 S"
b0 1"
b0 9"
b110011 2"
b110011 :"
b110011 >"
b10 1
b10 V
b10 f
b10 m#
b1 3
b1 U
b1 d
b1 l#
b10 w
b10 \"
b10100 @#
b10100 K#
b10100 S#
b1010 (
b1010 k
b1010 U"
b1010 q"
b1010 7#
b1010 <#
b1010 t#
b1010 y#
b100000000 n"
b100000000 +#
b100000000 .#
b10000 >
b10000 r
b10000 B#
b1100 @
b1100 s
b1100 D#
b1000001000000110110011 D
b1000001000000110110011 v
b1000001000000110110011 ["
b1000001000000110110011 F#
b10100 A#
b10100 L#
b10100 Q#
b10000 C#
b10000 O#
b10000 R#
b10000 T#
b1010 K
b1010 V#
b1010 `#
b1010 p#
b1010 u#
b100 ;
b100 X#
b100 a#
b100 q#
b100 w#
b1 4
b1 Q
b1 n
b1 X"
b1 Z#
b1 b#
1,
b101 L
b101 u"
b101 z"
b101 4#
b101 9#
b101 U#
b101 e#
b1000 <
b1000 d"
b1000 W#
b1000 v"
b10 5
b10 R
b10 h"
b10 x"
b10 Y#
b0 0
b0 O
b0 g
b0 *"
b1100 =
b1100 `
b1100 c"
b1100 %"
b1000 ?
b1000 _
b1000 $"
b1000 b"
b1000 0#
b1111 6
b1111 Y
b1111 o
b1111 ("
b1111 g"
b1111 k#
b100001000 9
b100001000 r"
b100001000 2#
b100001000 ?#
b100001000 J#
b100000000 E
b100000000 \
b100000000 ~
b100000000 a"
b100000000 -#
b100000000 1#
b10000 I#
b1100 H#
b1000001000000110110011 G#
1!
#650
0!
#700
b101 m"
b101 /#
b101 ;#
b1 F
b1 S
b1 `"
b1 :#
b1 {
b1 7"
b1 <"
b1111 p"
b1111 !#
b1111 (#
b101 p
b101 V"
b1000001111001010110011 E#
b1000001111001010110011 N#
b100000 1"
b100000 9"
b10000000010 w
b10000000010 \"
b101 )#
b11111111111111111111111111111010 "#
b1111 ##
b1111 ~"
b1111 }"
b11000 @#
b11000 K#
b11000 S#
b10100 >
b10100 r
b10100 B#
b10000 @
b10000 s
b10000 D#
b1000000001000001000001000110011 D
b1000000001000001000001000110011 v
b1000000001000001000001000110011 ["
b1000000001000001000001000110011 F#
b0 $#
b101000000 '#
b101 n"
b101 +#
b101 .#
b0 %#
b1010 o"
b1010 ,#
b1010 6#
b101 (
b101 k
b101 U"
b101 q"
b101 7#
b101 <#
b101 t#
b101 y#
b11000 A#
b11000 L#
b11000 Q#
b10100 C#
b10100 O#
b10100 R#
b10100 T#
b10100 I#
b10000 H#
b1000000001000001000001000110011 G#
b10 0
b10 O
b10 g
b10 *"
b1 2
b1 P
b1 e
b1 )"
b10000 =
b10000 `
b10000 c"
b10000 %"
b1100 ?
b1100 _
b1100 $"
b1100 b"
b1100 0#
b11 6
b11 Y
b11 o
b11 ("
b11 g"
b11 k#
b1110 9
b1110 r"
b1110 2#
b1110 ?#
b1110 J#
b10 E
b10 \
b10 ~
b10 a"
b10 -#
b10 1#
b1010 8
b1010 b
b1010 &"
b1010 e"
b1010 3#
0M
b100000000 L
b100000000 u"
b100000000 z"
b100000000 4#
b100000000 9#
b100000000 U#
b100000000 e#
b1100 <
b1100 d"
b1100 W#
b1100 v"
b1111 5
b1111 R
b1111 h"
b1111 x"
b1111 Y#
b101 K
b101 V#
b101 `#
b101 p#
b101 u#
b1000 ;
b1000 X#
b1000 a#
b1000 q#
b1000 w#
b10 4
b10 Q
b10 n
b10 X"
b10 Z#
b10 b#
1!
#750
0!
#800
0s"
b0 &#
b0 %#
b1111 ~"
b11111111111111111111111111111010 "#
b1111 }"
1t"
b101000000 '#
b101 n"
b101 +#
b101 .#
b0 F
b0 S
b0 `"
b0 :#
1*#
b101 p"
b101 !#
b101 (#
b101 m"
b101 /#
b101 ;#
b11111111111111111111111111111010 )#
b10 {
b10 7"
b10 <"
b1000001110001100110011 E#
b1000001110001100110011 N#
b101 ##
b0 1"
b0 9"
b111 0"
b111 8"
b111 ="
b10 w
b10 \"
b11100 @#
b11100 K#
b11100 S#
b100000000 (
b100000000 k
b100000000 U"
b100000000 q"
b100000000 7#
b100000000 <#
b100000000 t#
b100000000 y#
b11000 >
b11000 r
b11000 B#
b10100 @
b10100 s
b10100 D#
b1000001111001010110011 D
b1000001111001010110011 v
b1000001111001010110011 ["
b1000001111001010110011 F#
b11100 A#
b11100 L#
b11100 Q#
b11000 C#
b11000 O#
b11000 R#
b11000 T#
b100000000 K
b100000000 V#
b100000000 `#
b100000000 p#
b100000000 u#
b1100 ;
b1100 X#
b1100 a#
b1100 q#
b1100 w#
b1111 4
b1111 Q
b1111 n
b1111 X"
b1111 Z#
b1111 b#
b1111 L
b1111 u"
b1111 z"
b1111 4#
b1111 9#
b1111 U#
b1111 e#
b10000 <
b10000 d"
b10000 W#
b10000 v"
b101 %
b101 k"
b101 ^#
b101 f#
b101 w"
b11 5
b11 R
b11 h"
b11 x"
b11 Y#
b10100 =
b10100 `
b10100 c"
b10100 %"
b10000 ?
b10000 _
b10000 $"
b10000 b"
b10000 0#
b100 6
b100 Y
b100 o
b100 ("
b100 g"
b100 k#
b10000010010 9
b10000010010 r"
b10000010010 2#
b10000010010 ?#
b10000010010 J#
b10000000010 E
b10000000010 \
b10000000010 ~
b10000000010 a"
b10000000010 -#
b10000000010 1#
b101 7
b101 c
b101 '"
b101 f"
b101 8#
b1 N
b1 Z
b1 |
b1 ]"
b1 {"
b11000 I#
b10100 H#
b1000001111001010110011 G#
1!
#850
0!
#900
0*#
b11 {
b11 7"
b11 <"
b101 )#
1$
0t"
b1000001001001110110011 E#
b1000001001001110110011 N#
b110 0"
b110 8"
b110 ="
b1111 ##
b0 p"
b0 !#
b0 (#
b100000 @#
b100000 K#
b100000 S#
b11100 >
b11100 r
b11100 B#
b11000 @
b11000 s
b11000 D#
b1000001110001100110011 D
b1000001110001100110011 v
b1000001110001100110011 ["
b1000001110001100110011 F#
b1111 (
b1111 k
b1111 U"
b1111 q"
b1111 7#
b1111 <#
b1111 t#
b1111 y#
b100000 A#
b100000 L#
b100000 Q#
b11100 C#
b11100 O#
b11100 R#
b11100 T#
b11100 I#
b11000 H#
b1000001110001100110011 G#
b11000 =
b11000 `
b11000 c"
b11000 %"
b10100 ?
b10100 _
b10100 $"
b10100 b"
b10100 0#
b101 6
b101 Y
b101 o
b101 ("
b101 g"
b101 k#
b10110 9
b10110 r"
b10110 2#
b10110 ?#
b10110 J#
b10 E
b10 \
b10 ~
b10 a"
b10 -#
b10 1#
b10 N
b10 Z
b10 |
b10 ]"
b10 {"
b101 L
b101 u"
b101 z"
b101 4#
b101 9#
b101 U#
b101 e#
b10100 <
b10100 d"
b10100 W#
b10100 v"
b100 5
b100 R
b100 h"
b100 x"
b100 Y#
b1111 K
b1111 V#
b1111 `#
b1111 p#
b1111 u#
b10000 ;
b10000 X#
b10000 a#
b10000 q#
b10000 w#
b11 4
b11 Q
b11 n
b11 X"
b11 Z#
b11 b#
1!
#950
0!
#1000
1*#
0$
b11111111111111111111111111111010 )#
b1111 p"
b1111 !#
b1111 (#
b110 {
b110 7"
b110 <"
b1000001101010000110011 E#
b1000001101010000110011 N#
b101 ##
b1 0"
b1 8"
b1 ="
b100100 @#
b100100 K#
b100100 S#
b101 (
b101 k
b101 U"
b101 q"
b101 7#
b101 <#
b101 t#
b101 y#
b100000 >
b100000 r
b100000 B#
b11100 @
b11100 s
b11100 D#
b1000001001001110110011 D
b1000001001001110110011 v
b1000001001001110110011 ["
b1000001001001110110011 F#
b100100 A#
b100100 L#
b100100 Q#
b100000 C#
b100000 O#
b100000 R#
b100000 T#
b101 K
b101 V#
b101 `#
b101 p#
b101 u#
b10100 ;
b10100 X#
b10100 a#
b10100 q#
b10100 w#
b100 4
b100 Q
b100 n
b100 X"
b100 Z#
b100 b#
b0 L
b0 u"
b0 z"
b0 4#
b0 9#
b0 U#
b0 e#
b11000 <
b11000 d"
b11000 W#
b11000 v"
b101 5
b101 R
b101 h"
b101 x"
b101 Y#
b11100 =
b11100 `
b11100 c"
b11100 %"
b11010 9
b11010 r"
b11010 2#
b11010 ?#
b11010 J#
b11000 ?
b11000 _
b11000 $"
b11000 b"
b11000 0#
b110 6
b110 Y
b110 o
b110 ("
b110 g"
b110 k#
b11 N
b11 Z
b11 |
b11 ]"
b11 {"
b100000 I#
b11100 H#
b1000001001001110110011 G#
1!
#1050
0!
